module gitlab.com/RubenRojas/mod-challenge

go 1.17

require (
	github.com/kataras/iris/v12 v12.1.8
	go.mongodb.org/mongo-driver v1.9.1
)

require (
	github.com/BurntSushi/toml v0.3.1 // indirect
	github.com/CloudyKit/fastprinter v0.0.0-20200109182630-33d98a066a53 // indirect
	github.com/CloudyKit/jet/v3 v3.0.0 // indirect
	github.com/Shopify/goreferrer v0.0.0-20181106222321-ec9c9a553398 // indirect
	github.com/ajg/form v1.5.1 // indirect
	github.com/aymerick/raymond v2.0.3-0.20180322193309-b565731e1464+incompatible // indirect
	github.com/eknkc/amber v0.0.0-20171010120322-cdade1c07385 // indirect
	github.com/fatih/structs v1.1.0 // indirect
	github.com/go-stack/stack v1.8.0 // indirect
	github.com/golang/snappy v0.0.1 // indirect
	github.com/google/go-querystring v1.1.0 // indirect
	github.com/imkira/go-interpol v1.1.0 // indirect
	github.com/iris-contrib/blackfriday v2.0.0+incompatible // indirect
	github.com/iris-contrib/jade v1.1.3 // indirect
	github.com/iris-contrib/pongo2 v0.0.1 // indirect
	github.com/iris-contrib/schema v0.0.1 // indirect
	github.com/json-iterator/go v1.1.9 // indirect
	github.com/kataras/golog v0.0.10 // indirect
	github.com/kataras/pio v0.0.2 // indirect
	github.com/kataras/sitemap v0.0.5 // indirect
	github.com/klauspost/compress v1.15.0 // indirect
	github.com/microcosm-cc/bluemonday v1.0.2 // indirect
	github.com/modern-go/concurrent v0.0.0-20180228061459-e0a39a4cb421 // indirect
	github.com/modern-go/reflect2 v0.0.0-20180701023420-4b7aa43c6742 // indirect
	github.com/moul/http2curl v1.0.0 // indirect
	github.com/pkg/errors v0.9.1 // indirect
	github.com/ryanuber/columnize v2.1.0+incompatible // indirect
	github.com/schollz/closestmatch v2.1.0+incompatible // indirect
	github.com/sergi/go-diff v1.2.0 // indirect
	github.com/shurcooL/sanitized_anchor_name v1.0.0 // indirect
	github.com/smartystreets/goconvey v1.7.2 // indirect
	github.com/valyala/fasthttp v1.38.0 // indirect
	github.com/xdg-go/pbkdf2 v1.0.0 // indirect
	github.com/xdg-go/scram v1.0.2 // indirect
	github.com/xdg-go/stringprep v1.0.2 // indirect
	github.com/xeipuuv/gojsonschema v1.2.0 // indirect
	github.com/yalp/jsonpath v0.0.0-20180802001716-5cc68e5049a0 // indirect
	github.com/youmark/pkcs8 v0.0.0-20181117223130-1be2e3e5546d // indirect
	github.com/yudai/gojsondiff v1.0.0 // indirect
	github.com/yudai/golcs v0.0.0-20170316035057-ecda9a501e82 // indirect
	golang.org/x/crypto v0.0.0-20220214200702-86341886e292 // indirect
	golang.org/x/net v0.0.0-20220225172249-27dd8689420f // indirect
	golang.org/x/sync v0.0.0-20190911185100-cd5d95a43a6e // indirect
	golang.org/x/sys v0.0.0-20220227234510-4e6760a101f9 // indirect
	golang.org/x/text v0.3.7 // indirect
	gopkg.in/check.v1 v1.0.0-20190902080502-41f04d3bba15 // indirect
	gopkg.in/ini.v1 v1.51.1 // indirect
	gopkg.in/yaml.v2 v2.2.4 // indirect
	gopkg.in/yaml.v3 v3.0.0-20200313102051-9f266ea9e77c // indirect
)
